Cloud-Optimized Partial Reading of GEDI and ICESat-2 HDF5 Data • spacelaser
…
gedi2a
#> # A tibble: 647 × 121
#>    beam     shot_number time                lat_lowestmode lon_lowestmode
#>    <chr>        <int64> <dttm>                       <dbl>          <dbl>
#>  1 BEAM1000       2.e17 2022-11-25 06:16:52           41.4          -124.
#>  2 BEAM1000       2.e17 2022-11-25 06:16:52           41.4          -124.
#>  3 BEAM1000       2.e17 2022-11-25 06:16:52           41.4          -124.
#>  4 BEAM1000       2.e17 2022-11-25 06:16:52           41.4          -124.
#>  5 BEAM1000       2.e17 2022-11-25 06:16:53           41.4          -124.
#>  6 BEAM1011       2.e17 2022-11-25 06:16:52           41.4          -124.
#>  7 BEAM1011       2.e17 2022-11-25 06:16:52           41.4          -124.
#>  8 BEAM1011       2.e17 2022-11-25 06:16:52           41.4          -124.
#>  9 BEAM1011       2.e17 2022-11-25 06:16:52           41.4          -124.
#> 10 BEAM1011       2.e17 2022-11-25 06:16:52           41.4          -124.
#> # ℹ 637 more rows
#> # ℹ 116 more variables: degrade_flag <int>, quality_flag <int>,
#> #   sensitivity <dbl>, solar_elevation <dbl>, elev_lowestmode <dbl>,
#> #   elev_highestreturn <dbl>, energy_total <dbl>, num_detectedmodes <int>,
#> #   rh0 <dbl>, rh1 <dbl>, rh2 <dbl>, rh3 <dbl>, rh4 <dbl>, rh5 <dbl>,
#> #   rh6 <dbl>, rh7 <dbl>, rh8 <dbl>, rh9 <dbl>, rh10 <dbl>, rh11 <dbl>,
#> #   rh12 <dbl>, rh13 <dbl>, rh14 <dbl>, rh15 <dbl>, rh16 <dbl>, rh17 <dbl>, …
…
