…
gedi2a
#> # A tibble: 579 × 121
#>     rh98  rh61  rh64  rh26  rh25  rh55 selected_algorithm quality_flag  rh47
#>    <dbl> <dbl> <dbl> <dbl> <dbl> <dbl>              <int>        <int> <dbl>
#>  1  84.8  71.9  72.6 39.5  30.6   70.5                  2            1  67.3
#>  2  73.8  57.3  58.9  6.58  6.36  53.7                  2            1  45.9
#>  3  76.0  45.7  48.1  6.06  5.68  39.6                  2            1  24.8
#>  4  20.2  13.0  13.5  5.76  5.53  11.7                  2            1  10.2
#>  5  80.1  63.1  64.4 10.6   9.95  58.0                  2            1  49.6
#>  6  62.0  51.8  52.3 23.5  22.4   50.7                  2            1  48.5
#>  7  20.6  12.9  13.3  7.85  7.70  12.2                  2            1  11.1
#>  8  30.6  20.4  21.2  7.82  7.10  18.9                  2            1  16.7
#>  9  71.1  59.2  59.9 51.2  51.0   58.1                  2            1  56.2
#> 10  63.8  53.8  54.5 39.6  38.8   52.3                  1            1  49.8
#> # ℹ 569 more rows
#> # ℹ 112 more variables: rh3 <dbl>, rh45 <dbl>, rh99 <dbl>, rh91 <dbl>,
#> #   rh9 <dbl>, rh65 <dbl>, pft_class <int>, rh71 <dbl>, rh17 <dbl>, rh20 <dbl>,
#> #   rh75 <dbl>, rh21 <dbl>, rh87 <dbl>, rh22 <dbl>, rh68 <dbl>, rh48 <dbl>,
#> #   rh82 <dbl>, modis_treecover <dbl>, rh1 <dbl>, energy_total <dbl>,
#> #   rh85 <dbl>, rh57 <dbl>, rh46 <dbl>, rh62 <dbl>, rh6 <dbl>, rh41 <dbl>,
#> #   rh80 <dbl>, beam <chr>, solar_elevation <dbl>, region_class <int>, …
…
